<gateway compatibility="1" xmlns:xsi="http://www.w3.org/2001/XMLSchema-instance" xsi:noNamespaceSchemaLocation="http://schema.itrsgroup.com/GA4.1.0-170114/gateway.xsd">
    <rules>
        <rule name="Memory Available">
            <targets>
                <target>/geneos/gateway[(@name=&quot;ProdSupport&quot;)]/directory/probe/managedEntity/sampler[(@name=&quot;HW Info&quot;)][(@type=&quot;System Checks&quot;)]/dataview[(@name=&quot;HW Info&quot;)]/rows/row[(@name=&quot;memoryAvailablePct&quot;)]/cell[(@column=&quot;Value&quot;)]</target>
            </targets>
            <priority>1</priority>
            <activeTime>
                <activeTime ref="ProdSupport Active Times"></activeTime>
            </activeTime>
            <block>
                <if>
                    <lt>
                        <dataItem>
                            <property>@value</property>
                        </dataItem>
                        <integer>20</integer>
                    </lt>
                    <transaction>
                        <update>
                            <property>state/@severity</property>
                            <severity>critical</severity>
                        </update>
                    </transaction>
                    <if>
                        <lt>
                            <dataItem>
                                <property>@value</property>
                            </dataItem>
                            <integer>35</integer>
                        </lt>
                        <transaction>
                            <update>
                                <property>state/@severity</property>
                                <severity>warning</severity>
                            </update>
                        </transaction>
                        <if>
                            <equal>
                                <dataItem>
                                    <property>@value</property>
                                </dataItem>
                                <null></null>
                            </equal>
                            <transaction>
                                <update>
                                    <property>state/@severity</property>
                                    <severity>undefined</severity>
                                </update>
                            </transaction>
                            <transaction>
                                <update>
                                    <property>state/@severity</property>
                                    <severity>ok</severity>
                                </update>
                            </transaction>
                        </if>
                    </if>
                </if>
            </block>
        </rule>
        <rule name="Swap Used">
            <targets>
                <target>/geneos/gateway[(@name=&quot;ProdSupport&quot;)]/directory/probe/managedEntity/sampler[(@name=&quot;HW Info&quot;)][(@type=&quot;System Checks&quot;)]/dataview[(@name=&quot;HW Info&quot;)]/rows/row[(@name=&quot;swapUsed&quot;)]/cell[(@column=&quot;Value&quot;)]</target>
            </targets>
            <priority>1</priority>
            <activeTime>
                <activeTime ref="ProdSupport Active Times"></activeTime>
            </activeTime>
            <block>
                <if>
                    <gt>
                        <dataItem>
                            <property>@value</property>
                        </dataItem>
                        <integer>20</integer>
                    </gt>
                    <transaction>
                        <update>
                            <property>state/@severity</property>
                            <severity>critical</severity>
                        </update>
                    </transaction>
                    <if>
                        <gt>
                            <dataItem>
                                <property>@value</property>
                            </dataItem>
                            <integer>10</integer>
                        </gt>
                        <transaction>
                            <update>
                                <property>state/@severity</property>
                                <severity>warning</severity>
                            </update>
                        </transaction>
                        <if>
                            <equal>
                                <dataItem>
                                    <property>@value</property>
                                </dataItem>
                                <null></null>
                            </equal>
                            <transaction>
                                <update>
                                    <property>state/@severity</property>
                                    <severity>undefined</severity>
                                </update>
                            </transaction>
                            <transaction>
                                <update>
                                    <property>state/@severity</property>
                                    <severity>ok</severity>
                                </update>
                            </transaction>
                        </if>
                    </if>
                </if>
            </block>
        </rule>
        <rule name="Zombies Running">
            <targets>
                <target>/geneos/gateway[(@name=&quot;ProdSupport&quot;)]/directory/probe/managedEntity/sampler[(@name=&quot;HW Info&quot;)][(@type=&quot;System Checks&quot;)]/dataview[(@name=&quot;HW Info&quot;)]/rows/row[(@name=&quot;zombieProcesses&quot;)]/cell[(@column=&quot;Value&quot;)]</target>
            </targets>
            <priority>1</priority>
            <activeTime>
                <activeTime ref="ProdSupport Active Times"></activeTime>
            </activeTime>
            <block>
                <if>
                    <gt>
                        <dataItem>
                            <property>@value</property>
                        </dataItem>
                        <integer>60</integer>
                    </gt>
                    <transaction>
                        <update>
                            <property>state/@severity</property>
                            <severity>warning</severity>
                        </update>
                    </transaction>
                    <if>
                        <gt>
                            <dataItem>
                                <property>@value</property>
                            </dataItem>
                            <integer>100</integer>
                        </gt>
                        <transaction>
                            <update>
                                <property>state/@severity</property>
                                <severity>critical</severity>
                            </update>
                        </transaction>
                        <if>
                            <equal>
                                <dataItem>
                                    <property>@value</property>
                                </dataItem>
                                <null></null>
                            </equal>
                            <transaction>
                                <update>
                                    <property>state/@severity</property>
                                    <severity>undefined</severity>
                                </update>
                            </transaction>
                            <transaction>
                                <update>
                                    <property>state/@severity</property>
                                    <severity>ok</severity>
                                </update>
                            </transaction>
                        </if>
                    </if>
                </if>
            </block>
        </rule>
        <rule name="Webmon Status OK">
            <targets>
                <target>/geneos/gateway[(@name=&quot;ProdSupport&quot;)]/directory/probe/managedEntity/sampler[(param(&quot;PluginName&quot;)=&quot;WEB-MON&quot;)]/dataview/rows/row/cell[(@column=&quot;status&quot;)]</target>
            </targets>
            <priority>1</priority>
            <activeTime>
                <activeTime ref="ProdSupport Active Times"></activeTime>
            </activeTime>
            <block>
                <if>
                    <equal>
                        <dataItem>
                            <property>@value</property>
                        </dataItem>
                        <string>OK</string>
                    </equal>
                    <transaction>
                        <update>
                            <property>state/@severity</property>
                            <severity>ok</severity>
                        </update>
                    </transaction>
                    <if>
                        <equal>
                            <dataItem>
                                <property>@value</property>
                            </dataItem>
                            <null></null>
                        </equal>
                        <transaction>
                            <update>
                                <property>state/@severity</property>
                                <severity>undefined</severity>
                            </update>
                        </transaction>
                        <transaction>
                            <update>
                                <property>state/@severity</property>
                                <severity>critical</severity>
                            </update>
                        </transaction>
                    </if>
                </if>
            </block>
        </rule>
        <rule name="CPU Used">
            <targets>
                <target>/geneos/gateway[(@name=&quot;ProdSupport&quot;)]/directory/probe/managedEntity/sampler[(@name=&quot;CPU info&quot;)][(@type=&quot;System Checks&quot;)]/dataview[(@name=&quot;CPU info&quot;)]/rows/row/cell[(@column=&quot;percentUtilisation&quot;)]</target>
            </targets>
            <priority>1</priority>
            <activeTime>
                <activeTime ref="ProdSupport Active Times"></activeTime>
            </activeTime>
            <block>
                <if>
                    <gt>
                        <dataItem>
                            <property>@value</property>
                        </dataItem>
                        <integer>80</integer>
                    </gt>
                    <transaction>
                        <update>
                            <property>state/@severity</property>
                            <severity>critical</severity>
                        </update>
                    </transaction>
                    <if>
                        <gt>
                            <dataItem>
                                <property>@value</property>
                            </dataItem>
                            <integer>60</integer>
                        </gt>
                        <transaction>
                            <update>
                                <property>state/@severity</property>
                                <severity>warning</severity>
                            </update>
                        </transaction>
                        <if>
                            <equal>
                                <dataItem>
                                    <property>@value</property>
                                </dataItem>
                                <null></null>
                            </equal>
                            <transaction>
                                <update>
                                    <property>state/@severity</property>
                                    <severity>undefined</severity>
                                </update>
                            </transaction>
                            <transaction>
                                <update>
                                    <property>state/@severity</property>
                                    <severity>ok</severity>
                                </update>
                            </transaction>
                        </if>
                    </if>
                </if>
            </block>
        </rule>
        <rule name="Percent Collision">
            <targets>
                <target>/geneos/gateway[(@name=&quot;ProdSupport&quot;)]/directory/probe/managedEntity/sampler[(@name=&quot;Network Info&quot;)][(@type=&quot;System Checks&quot;)]/dataview[(@name=&quot;Network Info&quot;)]/rows/row/cell[(@column=&quot;percentCollisions&quot;)]</target>
            </targets>
            <priority>1</priority>
            <activeTime>
                <activeTime ref="ProdSupport Active Times"></activeTime>
            </activeTime>
            <block>
                <if>
                    <gt>
                        <dataItem>
                            <property>@value</property>
                        </dataItem>
                        <integer>50</integer>
                    </gt>
                    <transaction>
                        <update>
                            <property>state/@severity</property>
                            <severity>critical</severity>
                        </update>
                    </transaction>
                    <if>
                        <gt>
                            <dataItem>
                                <property>@value</property>
                            </dataItem>
                            <integer>30</integer>
                        </gt>
                        <transaction>
                            <update>
                                <property>state/@severity</property>
                                <severity>warning</severity>
                            </update>
                        </transaction>
                        <transaction>
                            <update>
                                <property>state/@severity</property>
                                <severity>ok</severity>
                            </update>
                        </transaction>
                    </if>
                </if>
            </block>
        </rule>
        <rule name="Percent Send Errors">
            <targets>
                <target>/geneos/gateway[(@name=&quot;ProdSupport&quot;)]/directory/probe/managedEntity/sampler[(@name=&quot;Network Info&quot;)][(@type=&quot;System Checks&quot;)]/dataview[(@name=&quot;Network Info&quot;)]/rows/row/cell[(@column=&quot;percentSendErrors&quot;)]</target>
            </targets>
            <priority>1</priority>
            <activeTime>
                <activeTime ref="ProdSupport Active Times"></activeTime>
            </activeTime>
            <block>
                <if>
                    <gt>
                        <dataItem>
                            <property>@value</property>
                        </dataItem>
                        <integer>80</integer>
                    </gt>
                    <transaction>
                        <update>
                            <property>state/@severity</property>
                            <severity>critical</severity>
                        </update>
                    </transaction>
                    <if>
                        <gt>
                            <dataItem>
                                <property>@value</property>
                            </dataItem>
                            <integer>60</integer>
                        </gt>
                        <transaction>
                            <update>
                                <property>state/@severity</property>
                                <severity>warning</severity>
                            </update>
                        </transaction>
                        <transaction>
                            <update>
                                <property>state/@severity</property>
                                <severity>ok</severity>
                            </update>
                        </transaction>
                    </if>
                </if>
            </block>
        </rule>
        <rule name="Percent Receive Errors">
            <targets>
                <target>/geneos/gateway[(@name=&quot;ProdSupport&quot;)]/directory/probe/managedEntity/sampler[(@name=&quot;Network Info&quot;)][(@type=&quot;System Checks&quot;)]/dataview[(@name=&quot;Network Info&quot;)]/rows/row/cell[(@column=&quot;percentRecvErrors&quot;)]</target>
            </targets>
            <priority>1</priority>
            <activeTime>
                <activeTime ref="ProdSupport Active Times"></activeTime>
            </activeTime>
            <block>
                <if>
                    <gt>
                        <dataItem>
                            <property>@value</property>
                        </dataItem>
                        <integer>80</integer>
                    </gt>
                    <transaction>
                        <update>
                            <property>state/@severity</property>
                            <severity>critical</severity>
                        </update>
                    </transaction>
                    <if>
                        <gt>
                            <dataItem>
                                <property>@value</property>
                            </dataItem>
                            <integer>60</integer>
                        </gt>
                        <transaction>
                            <update>
                                <property>state/@severity</property>
                                <severity>warning</severity>
                            </update>
                        </transaction>
                        <transaction>
                            <update>
                                <property>state/@severity</property>
                                <severity>ok</severity>
                            </update>
                        </transaction>
                    </if>
                </if>
            </block>
        </rule>
        <rule name="Instance Count">
            <targets>
                <target>/geneos/gateway[(@name=&quot;ProdSupport&quot;)]/directory/probe/managedEntity/sampler[(param(&quot;PluginName&quot;)=&quot;PROCESSES&quot;)]/dataview/rows/row/cell[(@column=&quot;instanceCount&quot;)]</target>
            </targets>
            <priority>1</priority>
            <activeTime>
                <activeTime ref="ProdSupport Active Times"></activeTime>
            </activeTime>
            <block>
                <if>
                    <gt>
                        <dataItem>
                            <property>@value</property>
                        </dataItem>
                        <integer>0</integer>
                    </gt>
                    <transaction>
                        <update>
                            <property>state/@severity</property>
                            <severity>ok</severity>
                        </update>
                    </transaction>
                    <if>
                        <equal>
                            <dataItem>
                                <property>@value</property>
                            </dataItem>
                            <null></null>
                        </equal>
                        <transaction>
                            <update>
                                <property>state/@severity</property>
                                <severity>undefined</severity>
                            </update>
                        </transaction>
                        <transaction>
                            <update>
                                <property>state/@severity</property>
                                <severity>critical</severity>
                            </update>
                        </transaction>
                    </if>
                </if>
            </block>
        </rule>
        <rule name="Ports Open">
            <targets>
                <target>/geneos/gateway[(@name=&quot;ProdSupport&quot;)]/directory/probe/managedEntity/sampler/dataview/headlines/cell[(@name=&quot;Total connections&quot;)]</target>
            </targets>
            <priority>1</priority>
            <activeTime>
                <activeTime ref="ProdSupport Active Times"></activeTime>
            </activeTime>
            <block>
                <if>
                    <lt>
                        <dataItem>
                            <property>@value</property>
                        </dataItem>
                        <integer>1</integer>
                    </lt>
                    <transaction>
                        <update>
                            <property>state/@severity</property>
                            <severity>critical</severity>
                        </update>
                    </transaction>
                    <if>
                        <equal>
                            <dataItem>
                                <property>@value</property>
                            </dataItem>
                            <null></null>
                        </equal>
                        <transaction>
                            <update>
                                <property>state/@severity</property>
                                <severity>undefined</severity>
                            </update>
                        </transaction>
                        <transaction>
                            <update>
                                <property>state/@severity</property>
                                <severity>ok</severity>
                            </update>
                        </transaction>
                    </if>
                </if>
            </block>
        </rule>
        <rule name="Disk Usage">
            <targets>
                <target>/geneos/gateway[(@name=&quot;ProdSupport&quot;)]/directory/probe/managedEntity/sampler[(@name=&quot;Disk info&quot;)][(@type=&quot;System Checks&quot;)]/dataview[(@name=&quot;Disk info&quot;)]/rows/row[(@name=&quot;/&quot;)]/cell[(@column=&quot;percentageUsed&quot;)]</target>
            </targets>
            <priority>1</priority>
            <activeTime>
                <activeTime ref="ProdSupport Active Times"></activeTime>
            </activeTime>
            <block>
                <if>
                    <gt>
                        <dataItem>
                            <property>@value</property>
                        </dataItem>
                        <integer>80</integer>
                    </gt>
                    <transaction>
                        <update>
                            <property>state/@severity</property>
                            <severity>critical</severity>
                        </update>
                    </transaction>
                    <if>
                        <gt>
                            <dataItem>
                                <property>@value</property>
                            </dataItem>
                            <integer>65</integer>
                        </gt>
                        <transaction>
                            <update>
                                <property>state/@severity</property>
                                <severity>warning</severity>
                            </update>
                        </transaction>
                        <if>
                            <equal>
                                <dataItem>
                                    <property>@value</property>
                                </dataItem>
                                <null></null>
                            </equal>
                            <transaction>
                                <update>
                                    <property>state/@severity</property>
                                    <severity>undefined</severity>
                                </update>
                            </transaction>
                            <transaction>
                                <update>
                                    <property>state/@severity</property>
                                    <severity>ok</severity>
                                </update>
                            </transaction>
                        </if>
                    </if>
                </if>
            </block>
        </rule>
        <rule name="Process CPU">
            <targets>
                <target>/geneos/gateway[(@name=&quot;ProdSupport&quot;)]/directory/probe/managedEntity/sampler[(param(&quot;PluginName&quot;)=&quot;PROCESSES&quot;)]/dataview/rows/row/cell[(@column=&quot;percentCPU&quot;)]</target>
            </targets>
            <priority>1</priority>
            <activeTime>
                <activeTime ref="ProdSupport Active Times"></activeTime>
            </activeTime>
            <block>
                <if>
                    <gt>
                        <dataItem>
                            <property>@value</property>
                        </dataItem>
                        <integer>80</integer>
                    </gt>
                    <transaction>
                        <update>
                            <property>state/@severity</property>
                            <severity>critical</severity>
                        </update>
                    </transaction>
                    <if>
                        <gt>
                            <dataItem>
                                <property>@value</property>
                            </dataItem>
                            <integer>60</integer>
                        </gt>
                        <transaction>
                            <update>
                                <property>state/@severity</property>
                                <severity>warning</severity>
                            </update>
                        </transaction>
                        <if>
                            <equal>
                                <dataItem>
                                    <property>@value</property>
                                </dataItem>
                                <null></null>
                            </equal>
                            <transaction>
                                <update>
                                    <property>state/@severity</property>
                                    <severity>undefined</severity>
                                </update>
                            </transaction>
                            <transaction>
                                <update>
                                    <property>state/@severity</property>
                                    <severity>ok</severity>
                                </update>
                            </transaction>
                        </if>
                    </if>
                </if>
            </block>
        </rule>
        <rule name="Process Memory">
            <targets>
                <target>/geneos/gateway[(@name=&quot;ProdSupport&quot;)]/directory/probe/managedEntity/sampler[(param(&quot;PluginName&quot;)=&quot;PROCESSES&quot;)]/dataview/rows/row/cell[(@column=&quot;percentMemory&quot;)]</target>
            </targets>
            <priority>1</priority>
            <activeTime>
                <activeTime ref="ProdSupport Active Times"></activeTime>
            </activeTime>
            <block>
                <if>
                    <gt>
                        <dataItem>
                            <property>@value</property>
                        </dataItem>
                        <integer>80</integer>
                    </gt>
                    <transaction>
                        <update>
                            <property>state/@severity</property>
                            <severity>critical</severity>
                        </update>
                    </transaction>
                    <if>
                        <gt>
                            <dataItem>
                                <property>@value</property>
                            </dataItem>
                            <integer>60</integer>
                        </gt>
                        <transaction>
                            <update>
                                <property>state/@severity</property>
                                <severity>warning</severity>
                            </update>
                        </transaction>
                        <if>
                            <equal>
                                <dataItem>
                                    <property>@value</property>
                                </dataItem>
                                <null></null>
                            </equal>
                            <transaction>
                                <update>
                                    <property>state/@severity</property>
                                    <severity>undefined</severity>
                                </update>
                            </transaction>
                            <transaction>
                                <update>
                                    <property>state/@severity</property>
                                    <severity>ok</severity>
                                </update>
                            </transaction>
                        </if>
                    </if>
                </if>
            </block>
        </rule>
        <rule name="Trade App Components Exist">
            <targets>
                <target>/geneos/gateway[(@name=&quot;ProdSupport&quot;)]/directory/probe[(@name=&quot;AppProd&quot;)]/managedEntity[(@name=&quot;Application Production Server&quot;)]/sampler[(@name=&quot;Toolkit Trade App Components&quot;)][(@type=&quot;Prod&quot;)]/dataview[(@name=&quot;Toolkit Trade App Components&quot;)]/rows</target>
            </targets>
            <priority>1</priority>
            <activeTime>
                <activeTime ref="ProdSupport Active Times"></activeTime>
            </activeTime>
            <block>
                <if>
                    <like>
                        <dataItem>
                            <property>@value</property>
                        </dataItem>
                        <string>*trades*</string>
                    </like>
                    <transaction>
                        <update>
                            <property>state/@severity</property>
                            <severity>ok</severity>
                        </update>
                    </transaction>
                    <if>
                        <like>
                            <dataItem>
                                <property>@value</property>
                            </dataItem>
                            <string>*mysql*</string>
                        </like>
                        <transaction>
                            <update>
                                <property>state/@severity</property>
                                <severity>ok</severity>
                            </update>
                        </transaction>
                        <if>
                            <like>
                                <dataItem>
                                    <property>@value</property>
                                </dataItem>
                                <string>*activemq*</string>
                            </like>
                            <transaction>
                                <update>
                                    <property>state/@severity</property>
                                    <severity>ok</severity>
                                </update>
                            </transaction>
                            <transaction>
                                <update>
                                    <property>state/@severity</property>
                                    <severity>critical</severity>
                                </update>
                            </transaction>
                        </if>
                    </if>
                </if>
            </block>
        </rule>
        <rule name="Docker Count">
            <targets>
                <target>/geneos/gateway[(@name=&quot;ProdSupport&quot;)]/directory/probe[(@name=&quot;Docker Registry&quot;)]/managedEntity[(@name=&quot;Docker Registry&quot;)]/sampler[(@name=&quot;Toolkit Docker&quot;)][(@type=&quot;Docker Reg&quot;)]/dataview[(@name=&quot;Toolkit Docker&quot;)]/rows/row[(@name=&quot;COUNT&quot;)]/cell[(@column=&quot;COUNT&quot;)]</target>
            </targets>
            <priority>1</priority>
            <activeTime>
                <activeTime ref="ProdSupport Active Times"></activeTime>
            </activeTime>
            <block>
                <if>
                    <lt>
                        <dataItem>
                            <property>@value</property>
                        </dataItem>
                        <integer>1</integer>
                    </lt>
                    <transaction>
                        <update>
                            <property>state/@severity</property>
                            <severity>critical</severity>
                        </update>
                    </transaction>
                    <transaction>
                        <update>
                            <property>state/@severity</property>
                            <severity>ok</severity>
                        </update>
                    </transaction>
                </if>
            </block>
        </rule>
        <rule name="Elastic Search Usage">
            <targets>
                <target>/geneos/gateway[(@name=&quot;ProdSupport&quot;)]/directory/probe[(@name=&quot;ELK&quot;)]/managedEntity[(@name=&quot;ELK Server&quot;)]/sampler[(@name=&quot;Toolkit Disk&quot;)][(@type=&quot;ELK&quot;)]/dataview[(@name=&quot;Toolkit Disk&quot;)]/rows/row[(@name=&quot;Elastic Search&quot;)]/cell[(@column=&quot;percentageUsed&quot;)]</target>
            </targets>
            <priority>1</priority>
            <block>
                <if>
                    <gt>
                        <dataItem>
                            <property>@value</property>
                        </dataItem>
                        <integer>65</integer>
                    </gt>
                    <transaction>
                        <update>
                            <property>state/@severity</property>
                            <severity>warning</severity>
                        </update>
                    </transaction>
                    <if>
                        <gt>
                            <dataItem>
                                <property>@value</property>
                            </dataItem>
                            <integer>80</integer>
                        </gt>
                        <transaction>
                            <update>
                                <property>state/@severity</property>
                                <severity>critical</severity>
                            </update>
                        </transaction>
                        <transaction>
                            <update>
                                <property>state/@severity</property>
                                <severity>ok</severity>
                            </update>
                        </transaction>
                    </if>
                </if>
            </block>
        </rule>
    </rules>
    <activeTimes>
        <activeTime name="ProdSupport Active Times">
            <scheduledPeriod>
                <startTime>08:00:00</startTime>
                <endTime>22:00:00</endTime>
                <days>
                    <monday>true</monday>
                    <tuesday>true</tuesday>
                    <wednesday>true</wednesday>
                    <thursday>true</thursday>
                    <friday>true</friday>
                    <saturday>false</saturday>
                    <sunday>false</sunday>
                </days>
            </scheduledPeriod>
        </activeTime>
    </activeTimes>
</gateway>